<?xml version="1.0" standalone="no"?>
<!DOCTYPE svg PUBLIC "-//W3C//DTD SVG 20010904//EN"
 "http://www.w3.org/TR/2001/REC-SVG-20010904/DTD/svg10.dtd">
<svg version="1.0" xmlns="http://www.w3.org/2000/svg"
 width="1461.000000pt" height="1461.000000pt" viewBox="0 0 1461.000000 1461.000000"
 preserveAspectRatio="xMidYMid meet">
<metadata>
Created by potrace 1.14, written by Peter Selinger 2001-2017
</metadata>
<g transform="translate(0.000000,1461.000000) scale(0.100000,-0.100000)"
fill="#000000" stroke="none">
<path d="M3920 12919 c-283 -11 -515 -37 -890 -100 -64 -10 -131 -19 -149 -19
-18 0 -76 -9 -129 -20 -54 -10 -140 -23 -192 -29 -52 -5 -115 -16 -140 -25
-25 -8 -66 -17 -90 -20 -25 -2 -83 -13 -130 -24 -47 -11 -110 -25 -140 -31
-156 -29 -321 -97 -328 -135 -9 -43 69 -67 147 -46 24 6 62 14 85 16 22 3 78
14 124 24 46 11 93 20 105 20 11 0 73 11 136 24 283 59 611 105 836 116 549
29 679 32 945 26 157 -4 398 -13 535 -20 233 -13 328 -25 625 -76 63 -10 129
-21 145 -24 17 -3 68 -14 115 -25 47 -11 135 -29 195 -41 203 -41 544 -118
635 -145 138 -41 295 -95 460 -158 151 -59 424 -170 495 -202 17 -7 73 -32
125 -55 162 -71 539 -259 675 -338 72 -41 144 -83 160 -92 86 -49 274 -179
381 -263 27 -21 112 -86 189 -144 554 -415 734 -567 916 -773 50 -57 101 -113
111 -125 11 -11 44 -52 73 -91 30 -39 75 -96 100 -125 61 -71 237 -338 432
-654 7 -11 37 -65 66 -120 48 -88 71 -137 122 -260 7 -16 27 -75 45 -130 18
-55 45 -139 61 -187 68 -207 103 -360 109 -483 9 -168 2 -363 -16 -400 -7 -16
-33 -76 -57 -132 -66 -152 -110 -223 -178 -291 -65 -64 -109 -91 -308 -186
-147 -69 -302 -115 -551 -161 -114 -22 -435 -19 -680 5 -113 11 -272 25 -355
30 -82 6 -164 13 -182 16 l-32 6 -57 -113 c-49 -99 -58 -124 -62 -184 l-4 -71
48 -64 c27 -36 85 -93 129 -127 44 -35 101 -81 126 -103 55 -46 249 -180 263
-180 5 0 17 -6 25 -14 57 -51 578 -236 719 -256 42 -6 129 -19 192 -30 76 -13
160 -20 250 -20 120 0 150 4 270 34 275 70 322 88 466 181 288 186 442 321
596 525 82 108 160 255 172 325 4 21 14 51 21 65 7 14 16 48 20 75 3 28 15
102 25 165 11 63 24 175 30 249 24 269 -12 517 -140 976 -5 17 -18 64 -29 106
-53 194 -124 386 -184 489 -138 241 -220 372 -308 490 -30 41 -94 134 -142
205 -104 156 -180 256 -267 355 -133 150 -361 398 -442 480 -135 137 -644 571
-781 667 -134 94 -214 148 -253 174 -72 49 -344 225 -469 304 -16 11 -66 38
-110 61 -44 23 -118 63 -165 88 -146 80 -370 191 -495 246 -178 78 -181 80
-225 95 -22 8 -55 21 -73 28 -102 45 -155 67 -161 67 -3 0 -25 8 -49 18 -23
10 -58 24 -77 31 -19 7 -71 26 -115 42 -44 16 -134 43 -200 59 -66 17 -140 37
-165 45 -39 12 -197 53 -270 70 -14 4 -70 17 -125 30 -182 43 -280 65 -315 69
-19 3 -55 10 -80 16 -47 12 -67 16 -270 55 -241 46 -544 94 -830 131 -157 21
-712 27 -1090 13z"/>
<path d="M5120 12010 c-36 -4 -99 -8 -140 -9 -41 0 -108 -8 -150 -16 -41 -8
-131 -24 -200 -35 -254 -42 -552 -103 -680 -141 -36 -10 -71 -19 -79 -19 -7 0
-43 -12 -79 -26 -37 -14 -92 -35 -122 -46 -89 -34 -486 -232 -605 -302 -411
-242 -470 -285 -709 -517 -249 -241 -462 -471 -542 -584 -78 -111 -80 -115
-190 -303 -84 -144 -88 -153 -152 -274 -24 -46 -55 -98 -69 -116 -13 -18 -53
-99 -89 -180 -35 -81 -69 -155 -74 -164 -10 -18 -38 -93 -75 -203 -41 -122
-116 -444 -129 -550 -5 -47 -45 -277 -72 -417 -24 -124 -24 -134 -24 -691 0
-547 1 -571 25 -748 14 -101 25 -202 25 -224 0 -22 9 -95 20 -161 11 -67 22
-147 25 -178 8 -78 60 -333 90 -441 14 -49 32 -118 40 -153 9 -35 24 -86 34
-115 18 -51 34 -104 87 -282 14 -49 32 -108 39 -130 7 -22 27 -87 45 -145 18
-58 39 -118 46 -135 6 -16 19 -52 27 -80 14 -44 37 -106 97 -255 33 -84 108
-254 205 -470 54 -118 104 -233 112 -255 8 -22 18 -44 22 -50 5 -5 32 -55 61
-110 30 -55 95 -176 147 -268 51 -93 93 -171 93 -173 0 -2 61 -114 135 -249
75 -135 140 -256 145 -270 12 -32 42 -48 63 -32 22 17 157 283 157 310 0 12
-41 92 -91 177 -90 153 -117 218 -214 505 -39 113 -110 317 -186 528 -28 78
-60 171 -70 207 -9 36 -38 115 -62 175 -92 228 -115 293 -135 385 -34 154 -71
319 -94 415 -12 50 -22 100 -24 113 -1 13 -12 65 -24 115 -12 51 -28 121 -37
157 -8 36 -19 126 -24 200 -6 74 -19 245 -30 380 -28 353 -28 1060 1 1300 11
91 20 185 20 210 0 25 11 92 24 150 52 224 67 296 70 322 2 15 13 60 25 100
12 40 33 109 46 153 63 214 143 435 193 532 9 16 20 41 80 173 72 157 129 264
175 327 28 39 80 110 115 158 189 260 389 459 642 640 30 22 80 60 111 85 31
25 83 64 115 87 32 23 93 66 134 95 189 134 292 201 375 244 28 15 52 30 55
33 5 6 38 23 160 79 80 37 287 106 363 121 23 5 78 18 122 29 121 30 256 61
295 67 19 3 62 12 95 20 33 8 116 19 185 24 69 6 193 19 275 30 188 25 565 37
730 23 115 -10 241 -29 480 -72 61 -11 132 -22 160 -25 61 -6 259 -53 492
-116 39 -10 77 -19 85 -19 7 0 54 -11 103 -26 50 -14 122 -35 160 -46 263 -74
474 -171 695 -317 114 -75 335 -235 526 -378 38 -29 123 -112 189 -184 66 -73
159 -174 206 -224 98 -106 228 -272 308 -396 76 -117 71 -108 297 -544 109
-210 125 -246 189 -425 120 -332 121 -334 155 -357 45 -31 85 -29 155 11 l60
33 26 84 c15 46 41 134 59 194 18 61 42 137 53 170 28 83 27 163 -5 255 -14
41 -38 116 -53 165 -15 50 -36 115 -46 145 -10 30 -21 69 -24 86 -3 17 -35 75
-71 129 -35 53 -64 99 -64 102 0 3 -20 34 -45 69 -25 34 -45 65 -45 69 0 3
-35 56 -77 117 -43 61 -97 138 -120 172 -122 175 -428 475 -821 803 -28 24
-88 71 -134 105 -45 34 -86 66 -89 71 -13 19 -264 194 -434 303 -58 37 -172
96 -445 230 -447 220 -457 225 -565 264 -27 10 -75 28 -105 40 -212 83 -365
139 -500 183 -270 88 -444 122 -720 142 -107 8 -256 21 -330 30 -141 16 -556
19 -680 5z"/>
<path d="M6035 10983 c-482 -78 -537 -93 -775 -210 -96 -47 -182 -91 -190 -98
-8 -7 -51 -32 -95 -54 -81 -43 -117 -66 -330 -219 -241 -174 -424 -386 -816
-942 -44 -62 -120 -206 -173 -328 -67 -153 -101 -289 -125 -502 -40 -355 -45
-477 -32 -762 18 -392 31 -507 81 -693 10 -38 30 -113 44 -165 14 -53 26 -102
26 -110 0 -8 7 -27 14 -42 8 -16 30 -74 49 -130 39 -113 69 -192 97 -253 25
-55 42 -95 85 -200 20 -49 54 -124 75 -165 21 -41 74 -147 118 -235 43 -88
112 -212 152 -275 197 -310 507 -765 577 -847 375 -440 569 -642 849 -885 72
-62 192 -165 266 -229 126 -110 289 -236 527 -409 57 -41 141 -102 186 -135
45 -33 113 -82 150 -110 37 -27 82 -59 100 -70 19 -11 85 -54 147 -95 130 -87
142 -95 303 -188 143 -83 284 -154 455 -228 69 -30 139 -61 155 -69 37 -16
137 -57 185 -75 19 -7 39 -17 45 -22 5 -4 15 -8 23 -8 7 0 38 -11 68 -25 30
-14 57 -25 61 -25 3 0 31 -11 62 -24 31 -13 110 -45 176 -71 66 -26 134 -53
150 -60 109 -48 292 -107 375 -120 19 -3 73 -15 120 -26 114 -27 263 -61 385
-89 55 -12 134 -30 175 -40 41 -10 95 -21 120 -24 25 -3 104 -14 175 -23 111
-15 204 -18 645 -17 329 1 542 6 590 13 41 6 131 16 199 21 312 25 580 82 786
168 169 70 279 120 550 248 118 56 370 221 486 319 26 22 71 58 98 79 28 22
51 44 51 49 0 5 26 37 58 71 46 49 64 80 95 156 46 119 48 140 7 140 -16 0
-44 -10 -63 -23 -63 -41 -187 -118 -324 -201 -54 -33 -114 -69 -133 -82 -19
-12 -57 -35 -85 -51 -57 -34 -374 -139 -458 -153 -31 -5 -94 -16 -139 -24
-285 -52 -448 -63 -709 -47 -209 13 -257 19 -449 57 -69 13 -172 33 -230 45
-160 30 -337 69 -417 90 -39 10 -78 19 -87 19 -8 0 -50 11 -93 24 -43 13 -127
38 -188 57 -60 18 -121 39 -135 46 -14 7 -31 13 -37 13 -12 0 -111 36 -178 65
-16 7 -66 27 -110 45 -44 17 -98 40 -120 50 -22 10 -83 36 -135 58 -234 98
-511 223 -551 250 -47 31 -103 66 -196 123 -556 342 -850 551 -1210 862 -78
67 -223 192 -322 277 -141 123 -219 200 -368 368 -103 117 -215 244 -248 281
-305 343 -429 504 -651 841 -23 34 -47 70 -53 79 -6 9 -41 63 -77 121 -36 58
-99 155 -138 215 -100 152 -116 179 -157 265 -20 41 -64 131 -97 200 -33 69
-69 150 -79 180 -79 221 -161 464 -186 550 -48 165 -78 324 -138 740 -58 398
-2 854 134 1087 118 201 335 448 447 508 116 61 219 109 340 155 79 30 105 40
187 75 17 8 58 19 90 24 32 6 108 20 168 32 179 34 185 34 565 34 444 0 481
-2 645 -31 275 -49 394 -67 408 -61 14 5 97 151 97 171 0 19 -135 219 -160
238 -26 19 -383 186 -565 265 -122 52 -322 123 -394 139 -35 8 -67 16 -71 19
-11 7 -340 41 -525 55 -189 14 -235 12 -410 -17z"/>
<path d="M10564 10965 c-7 -16 7 -35 155 -205 439 -508 587 -686 724 -870 64
-87 241 -351 271 -405 9 -16 21 -37 26 -45 7 -12 62 -104 120 -200 47 -79 120
-210 120 -215 0 -3 10 -30 23 -58 62 -136 237 -566 294 -717 45 -121 90 -265
119 -380 28 -113 28 -120 27 -385 -1 -346 -38 -748 -78 -859 -55 -149 -122
-241 -360 -492 -121 -128 -277 -258 -366 -304 -13 -7 -26 -16 -29 -19 -10 -13
-136 -88 -200 -119 -191 -93 -320 -114 -740 -119 -287 -4 -344 -2 -488 16 -89
12 -179 21 -200 21 -101 -1 -470 66 -622 112 -128 39 -302 109 -455 183 -183
88 -458 226 -500 250 -53 30 -205 143 -366 273 -393 314 -520 432 -722 672
-72 85 -154 180 -182 210 -129 136 -281 342 -346 472 -57 112 -228 567 -269
713 -4 17 -33 102 -63 190 -78 225 -106 329 -118 446 -14 139 -24 188 -42 207
-15 14 -22 13 -82 -13 -95 -40 -222 -119 -273 -168 -45 -43 -168 -222 -233
-337 -20 -36 -48 -86 -63 -112 -15 -26 -29 -60 -32 -75 -3 -15 -12 -57 -20
-93 -19 -82 -41 -222 -49 -320 -7 -82 22 -310 49 -387 8 -22 17 -58 20 -78 4
-21 15 -64 26 -98 11 -33 20 -65 20 -71 0 -17 55 -187 75 -232 10 -21 28 -61
40 -89 27 -59 223 -454 246 -495 89 -160 270 -396 586 -765 94 -109 635 -627
757 -725 143 -114 156 -124 216 -165 89 -61 375 -251 470 -313 47 -30 96 -63
110 -72 14 -9 37 -21 50 -25 14 -4 39 -15 55 -25 17 -9 73 -40 125 -67 52 -28
185 -98 295 -156 110 -58 263 -133 340 -167 77 -34 154 -68 170 -75 17 -7 57
-23 90 -35 57 -20 81 -27 215 -63 92 -24 284 -56 510 -84 309 -39 604 -37 950
6 135 16 283 39 330 50 159 38 314 105 500 213 41 25 90 53 109 64 18 10 69
43 113 72 43 28 83 52 89 52 5 0 9 6 9 13 0 8 19 29 43 48 94 75 353 339 408
416 99 140 174 308 283 638 58 174 62 187 75 255 6 30 20 102 32 160 36 175
37 445 5 835 -19 228 -32 338 -46 382 -11 34 -20 74 -20 90 0 15 -11 66 -24
113 -13 47 -34 123 -46 170 -53 199 -106 334 -285 725 -135 291 -216 449 -358
690 -72 122 -80 136 -161 263 -25 40 -46 75 -46 77 0 2 -21 37 -46 77 -26 40
-56 89 -68 108 -13 19 -44 68 -69 107 -26 40 -47 75 -47 78 0 13 -202 268
-280 354 -250 277 -328 359 -579 614 -164 165 -282 277 -293 277 -10 0 -21 -7
-24 -15z"/>
</g>
</svg>
